…
    ## file min/max dates: 1999-09-01 / 2021-09-30

Nest data within location

``` r
weather_nested = nest(weather_df, data = date:tmin)

weather_nested =
  weather_df %>% 
  nest(data = date:tmin)

unnest(weather_nested,data)
```

    ## # A tibble: 1,095 × 6
    ##    name           id          date        prcp  tmax  tmin
    ##    <chr>          <chr>       <date>     <dbl> <dbl> <dbl>
    ##  1 CentralPark_NY USW00094728 2017-01-01     0   8.9   4.4
    ##  2 CentralPark_NY USW00094728 2017-01-02    53   5     2.8
    ##  3 CentralPark_NY USW00094728 2017-01-03   147   6.1   3.9
    ##  4 CentralPark_NY USW00094728 2017-01-04     0  11.1   1.1
    ##  5 CentralPark_NY USW00094728 2017-01-05     0   1.1  -2.7
    ##  6 CentralPark_NY USW00094728 2017-01-06    13   0.6  -3.8
    ##  7 CentralPark_NY USW00094728 2017-01-07    81  -3.2  -6.6
    ##  8 CentralPark_NY USW00094728 2017-01-08     0  -3.8  -8.8
    ##  9 CentralPark_NY USW00094728 2017-01-09     0  -4.9  -9.9
    ## 10 CentralPark_NY USW00094728 2017-01-10     0   7.8  -6  
    ## # … with 1,085 more rows

``` r
weather_nested %>% 
  filter(name == "CentralPark_NY") %>% 
  pull(data)
```

    ## [[1]]
    ## # A tibble: 365 × 4
    ##    date        prcp  tmax  tmin
    ##    <date>     <dbl> <dbl> <dbl>
    ##  1 2017-01-01     0   8.9   4.4
    ##  2 2017-01-02    53   5     2.8
    ##  3 2017-01-03   147   6.1   3.9
    ##  4 2017-01-04     0  11.1   1.1
    ##  5 2017-01-05     0   1.1  -2.7
    ##  6 2017-01-06    13   0.6  -3.8
    ##  7 2017-01-07    81  -3.2  -6.6
    ##  8 2017-01-08     0  -3.8  -8.8
    ##  9 2017-01-09     0  -4.9  -9.9
    ## 10 2017-01-10     0   7.8  -6  
    ## # … with 355 more rows
…
``` r
napoleon_df = 
  tibble(
    urls = urls
  )

napoleon_df %>% 
  mutate( reviews = map(urls, get_page_reviews)) %>% 
  select(reviews) %>% 
  unnest(cols = reviews)
```

    ## # A tibble: 50 × 3
    ##    title                                                 stars   text           
    ##    <chr>                                                 <chr>   <chr>          
    ##  1 Vintage                                               5.0 ou… "\n  Easy to o…
    ##  2 too many commercials                                  1.0 ou… "\n  5 minutes…
    ##  3 this film is so good!                                 5.0 ou… "\n  VOTE FOR …
    ##  4 Good movie                                            5.0 ou… "\n  Weird sto…
    ##  5 I Just everyone to know this....                      5.0 ou… "\n  VOTE FOR …
    ##  6 the cobweb in his hair during the bike ramp scene lol 5.0 ou… "\n  5 stars f…
    ##  7 Best quirky movie ever                                5.0 ou… "\n  You all k…
    ##  8 Classic Film                                          5.0 ou… "\n  Had to or…
    ##  9 hehehehe                                              5.0 ou… "\n  goodjobbo…
    ## 10 Painful                                               1.0 ou… "\n  I think I…
    ## # … with 40 more rows
