…
``` r
bind_rows(
  get_page_reviews(urls[1]),
  get_page_reviews(urls[2]),
  get_page_reviews(urls[3]),
  get_page_reviews(urls[4]),
  get_page_reviews(urls[5])
)
```

    ## # A tibble: 50 × 3
    ##    title                                                 stars   text           
    ##    <chr>                                                 <chr>   <chr>          
    ##  1 Good movie                                            5.0 ou… "\n  Weird sto…
    ##  2 I Just everyone to know this....                      5.0 ou… "\n  VOTE FOR …
    ##  3 the cobweb in his hair during the bike ramp scene lol 5.0 ou… "\n  5 stars f…
    ##  4 Best quirky movie ever                                5.0 ou… "\n  You all k…
    ##  5 Classic Film                                          5.0 ou… "\n  Had to or…
    ##  6 hehehehe                                              5.0 ou… "\n  goodjobbo…
    ##  7 Painful                                               1.0 ou… "\n  I think I…
    ##  8 GRAND                                                 5.0 ou… "\n  GRAND\n"  
    ##  9 Hello, 90s                                            5.0 ou… "\n  So nostal…
    ## 10 Cult Classic                                          5.0 ou… "\n  Watched i…
    ## # … with 40 more rows
…
